#include<stdio.h>
int main()
{
int n,i,min,max;
 printf("Enter number of element:- ");
scanf("%d",&n);
int a[n];
  for(i = 0; i < n; i++) {
     scanf("%d", &a[i]);
  }
max=a[0];min=a[0];

for(i=0;i<n;i++)
{
if(max < a[i])
max=a[i];
else
if(a[i] < min)
min=a[i];
}
printf("The num %d is max and %d is minimum",min,max);
return 0;
}