Q.swap two no ?

-with third variable


#include <stdio.h>

int main()
{
    int t,a,b;
    printf("Enter no for a and b\n");
    scanf("%d%d",&a,&b);
   t=a;
a=b;
b=t;
    printf(" value of a %d value of b %d",a,b);
    
    

    return 0;
}



*********************************8

-without t

==>>

1)

#include <stdio.h>

int main()
{
    int a,b;
    printf("Enter no for a and b\n");
    scanf("%d%d",&a,&b);
   a=a*b;
   b=a/b;
   a=a/b;
    printf(" value of a %d value of b %d",a,b);
    
    

    return 0;
}


*******************8

2)

#include <stdio.h>

int main()
{
    int a,b;
    printf("Enter no for a and b\n");
    scanf("%d%d",&a,&b);//a=2,b=3
   a=a+b;//5
   b=a-b;//5-3
   a=a-b;//5-2
    printf(" value of a %d value of b %d",a,b);
    
    

    return 0;
}


******************************


Bitwise


#include <stdio.h>

int main()
{
    int a,b;
    printf("Enter no for a and b\n");
    scanf("%d%d",&a,&b);
   a=a^b;
   b=a^b;
   a=a^b;
    printf(" value of a %d value of b %d",a,b);
    
    

    return 0;
}


